<?xml version="1.0" encoding="UTF-8"?>
<robot generated="20160215 14:41:59.463" generator="Robot 3.0 (Python 2.7.10 on win32)">
<suite source="C:\Users\adria\PycharmProjects\Activity2\Test\Sample.robot" id="s1" name="Sample">
<test id="s1-t1" name="Post Requests">
<kw name="Create Session" library="RequestsLibrary">
<doc>Create Session: create a HTTP session to a server</doc>
<arguments>
<arg>chikka</arg>
<arg>https://post.chikka.com/smsapi</arg>
</arguments>
<msg timestamp="20160215 14:42:01.148" level="INFO">Creating Session using : alias=chikka, url=https://post.chikka.com/smsapi, headers={},                     cookies=None, auth=None, timeout=None, proxies=None, verify=False,                     debug=0 </msg>
<status status="PASS" endtime="20160215 14:42:01.149" starttime="20160215 14:42:01.147"></status>
</kw>
<kw name="Create Dictionary" library="BuiltIn">
<doc>Creates and returns a dictionary based on given items.</doc>
<arguments>
<arg>message_type=SEND</arg>
<arg>mobile_number=639499235814</arg>
<arg>shortcode=29290036982</arg>
<arg>message_id=fASTER</arg>
<arg>message=MAY THE FORCE BE WITH YOU</arg>
<arg>client_id=3ec593d7f48c1e2ae995b55d6023951fa479990d458b9946d6e7d7145c15139f</arg>
<arg>secret_key=1d092430f98f45a4832aaefb013bf93615fac6083fc597ea5ea8ab2fe67f0bb7</arg>
</arguments>
<assign>
<var>${data}</var>
</assign>
<msg timestamp="20160215 14:42:01.150" level="INFO">${data} = {u'message_type': u'SEND', u'mobile_number': u'639499235814', u'shortcode': u'29290036982', u'message_id': u'fASTER', u'message': u'MAY THE FORCE BE WITH YOU', u'client_id': u'3ec593d7f48c1e2ae995b55d...</msg>
<status status="PASS" endtime="20160215 14:42:01.151" starttime="20160215 14:42:01.149"></status>
</kw>
<kw name="Create Dictionary" library="BuiltIn">
<doc>Creates and returns a dictionary based on given items.</doc>
<arguments>
<arg>Content-Type=application/x-www-form-urlencoded</arg>
</arguments>
<assign>
<var>${headers}</var>
</assign>
<msg timestamp="20160215 14:42:01.152" level="INFO">${headers} = {u'Content-Type': u'application/x-www-form-urlencoded'}</msg>
<status status="PASS" endtime="20160215 14:42:01.152" starttime="20160215 14:42:01.151"></status>
</kw>
<kw name="Post Request" library="RequestsLibrary">
<doc>Send a POST request on the session object found using the</doc>
<arguments>
<arg>chikka</arg>
<arg>/request</arg>
<arg>data=${data}</arg>
<arg>headers=${headers}</arg>
</arguments>
<assign>
<var>${resp}</var>
</assign>
<msg timestamp="20160215 14:42:01.312" level="INFO">Starting new HTTPS connection (1): post.chikka.com</msg>
<msg timestamp="20160215 14:42:02.750" level="INFO">Post Request using : alias=chikka, uri=/request, data={u'message_type': u'SEND', u'mobile_number': u'639499235814', u'shortcode': u'29290036982', u'message_id': u'fASTER', u'message': u'MAY THE FORCE BE WITH YOU', u'client_id': u'3ec593d7f48c1e2ae995b55d6023951fa479990d458b9946d6e7d7145c15139f', u'secret_key': u'1d092430f98f45a4832aaefb013bf93615fac6083fc597ea5ea8ab2fe67f0bb7'},                     headers={u'Content-Type': u'application/x-www-form-urlencoded'}, files=None, allow_redirects=True </msg>
<msg timestamp="20160215 14:42:02.751" level="INFO">C:\Python27\lib\site-packages\requests\packages\urllib3\connectionpool.py:791: InsecureRequestWarning: Unverified HTTPS request is being made. Adding certificate verification is strongly advised. See: https://urllib3.readthedocs.org/en/latest/security.html
  InsecureRequestWarning)</msg>
<msg timestamp="20160215 14:42:02.752" level="INFO">${resp} = &lt;Response [200]&gt;</msg>
<status status="PASS" endtime="20160215 14:42:02.752" starttime="20160215 14:42:01.152"></status>
</kw>
<kw name="Should Be Equal As Strings" library="BuiltIn">
<doc>Fails if objects are unequal after converting them to strings.</doc>
<arguments>
<arg>${resp.status_code}</arg>
<arg>200</arg>
</arguments>
<msg timestamp="20160215 14:42:02.754" level="INFO">Argument types are:
&lt;type 'int'&gt;
&lt;type 'unicode'&gt;</msg>
<status status="PASS" endtime="20160215 14:42:02.755" starttime="20160215 14:42:02.753"></status>
</kw>
<kw name="Log" library="BuiltIn">
<doc>Logs the given message with the given level.</doc>
<arguments>
<arg>${resp.content}</arg>
</arguments>
<msg timestamp="20160215 14:42:02.757" level="INFO">{"status": 200, "message": "ACCEPTED"}</msg>
<status status="PASS" endtime="20160215 14:42:02.757" starttime="20160215 14:42:02.755"></status>
</kw>
<tags>
<tag>post</tag>
</tags>
<status status="PASS" endtime="20160215 14:42:02.758" critical="yes" starttime="20160215 14:42:01.147"></status>
</test>
<status status="PASS" endtime="20160215 14:42:02.761" starttime="20160215 14:41:59.466"></status>
</suite>
<statistics>
<total>
<stat fail="0" pass="1">Critical Tests</stat>
<stat fail="0" pass="1">All Tests</stat>
</total>
<tag>
<stat fail="0" pass="1">post</stat>
</tag>
<suite>
<stat fail="0" id="s1" name="Sample" pass="1">Sample</stat>
</suite>
</statistics>
<errors>
</errors>
</robot>
